<?xml version="1.0" encoding="UTF-8"?>
<session version="1.0">
<refactoring comment="Delete 2 resources" deleteContents="true" description="Delete 2 resources" element1="/Mixpanel Example Android Application" element2="/mixpanel-android" flags="7" id="org.eclipse.ltk.core.refactoring.delete.resources" resources="2" stamp="1387273201349"/>
</session>